\relax 
\providecommand\hyper@newdestlabel[2]{}
\providecommand\zref@newlabel[2]{}
\providecommand\HyperFirstAtBeginDocument{\AtBeginDocument}
\HyperFirstAtBeginDocument{\ifx\hyper@anchor\@undefined
\global\let\oldcontentsline\contentsline
\gdef\contentsline#1#2#3#4{\oldcontentsline{#1}{#2}{#3}}
\global\let\oldnewlabel\newlabel
\gdef\newlabel#1#2{\newlabelxx{#1}#2}
\gdef\newlabelxx#1#2#3#4#5#6{\oldnewlabel{#1}{{#2}{#3}}}
\AtEndDocument{\ifx\hyper@anchor\@undefined
\let\contentsline\oldcontentsline
\let\newlabel\oldnewlabel
\fi}
\fi}
\global\let\hyper@last\relax 
\gdef\HyperFirstAtBeginDocument#1{#1}
\providecommand\HyField@AuxAddToFields[1]{}
\providecommand\HyField@AuxAddToCoFields[2]{}
\providecommand \oddpage@label [2]{}
\providecommand\tcolorbox@label[2]{}
\@writefile{lof}{\contentsline {figure}{\numberline {1}{\ignorespaces  Promela Model Output from JSpin\relax }}{5}{figure.caption.8}}
\@writefile{lof}{\contentsline {figure}{\numberline {2}{\ignorespaces JSpin check of 2-C\relax }}{6}{figure.caption.11}}
\@writefile{toc}{\contentsline {subsubsection}{Proofs}{7}{section*.15}}
\gdef\minted@oldcachelist{,
  default.pygstyle,
  default-pyg-prefix.pygstyle,
  6FC968AD3E5ADB5B06B87F17A4311B754C6D7018E4A617A3D420F6420016C3C5.pygtex,
  C184F795CEF9592956ED27CE14BBB82E4C6D7018E4A617A3D420F6420016C3C5.pygtex,
  25882DEECA9D4BAE61F17383338335704C6D7018E4A617A3D420F6420016C3C5.pygtex,
  E0A7A04F87B4B5C1E10426921E3D56524C6D7018E4A617A3D420F6420016C3C5.pygtex,
  F1A2E01DE187D1299D1F21CD6E158A525BD172D075837687E06C3F74E5C475E4.pygtex}
